%YAML 1.1
%TAG !u! tag:unity3d.com,2011:
--- !u!1001 &1695554232505820171
PrefabInstance:
  m_ObjectHideFlags: 0
  serializedVersion: 2
  m_Modification:
    m_TransformParent: {fileID: 0}
    m_Modifications:
    - target: {fileID: 1439452019436502304, guid: 09d41bfa2badeaf4ca227274e422c5de, type: 3}
      propertyPath: m_text
      value: Master
      objectReference: {fileID: 0}
    - target: {fileID: 1439452019436502307, guid: 09d41bfa2badeaf4ca227274e422c5de, type: 3}
      propertyPath: m_AnchoredPosition.x
      value: 0
      objectReference: {fileID: 0}
    - target: {fileID: 1439452020259786180, guid: 09d41bfa2badeaf4ca227274e422c5de, type: 3}
      propertyPath: m_Pivot.x
      value: 0.5
      objectReference: {fileID: 0}
    - target: {fileID: 1439452020259786180, guid: 09d41bfa2badeaf4ca227274e422c5de, type: 3}
      propertyPath: m_Pivot.y
      value: 0.5
      objectReference: {fileID: 0}
    - target: {fileID: 1439452020259786180, guid: 09d41bfa2badeaf4ca227274e422c5de, type: 3}
      propertyPath: m_RootOrder
      value: 0
      objectReference: {fileID: 0}
    - target: {fileID: 1439452020259786180, guid: 09d41bfa2badeaf4ca227274e422c5de, type: 3}
      propertyPath: m_AnchorMax.x
      value: 1
      objectReference: {fileID: 0}
    - target: {fileID: 1439452020259786180, guid: 09d41bfa2badeaf4ca227274e422c5de, type: 3}
      propertyPath: m_AnchorMax.y
      value: 0.5
      objectReference: {fileID: 0}
    - target: {fileID: 1439452020259786180, guid: 09d41bfa2badeaf4ca227274e422c5de, type: 3}
      propertyPath: m_AnchorMin.x
      value: 0
      objectReference: {fileID: 0}
    - target: {fileID: 1439452020259786180, guid: 09d41bfa2badeaf4ca227274e422c5de, type: 3}
      propertyPath: m_AnchorMin.y
      value: 0.5
      objectReference: {fileID: 0}
    - target: {fileID: 1439452020259786180, guid: 09d41bfa2badeaf4ca227274e422c5de, type: 3}
      propertyPath: m_SizeDelta.x
      value: 0
      objectReference: {fileID: 0}
    - target: {fileID: 1439452020259786180, guid: 09d41bfa2badeaf4ca227274e422c5de, type: 3}
      propertyPath: m_SizeDelta.y
      value: 40
      objectReference: {fileID: 0}
    - target: {fileID: 1439452020259786180, guid: 09d41bfa2badeaf4ca227274e422c5de, type: 3}
      propertyPath: m_LocalPosition.x
      value: 0
      objectReference: {fileID: 0}
    - target: {fileID: 1439452020259786180, guid: 09d41bfa2badeaf4ca227274e422c5de, type: 3}
      propertyPath: m_LocalPosition.y
      value: 0
      objectReference: {fileID: 0}
    - target: {fileID: 1439452020259786180, guid: 09d41bfa2badeaf4ca227274e422c5de, type: 3}
      propertyPath: m_LocalPosition.z
      value: 0
      objectReference: {fileID: 0}
    - target: {fileID: 1439452020259786180, guid: 09d41bfa2badeaf4ca227274e422c5de, type: 3}
      propertyPath: m_LocalRotation.w
      value: 1
      objectReference: {fileID: 0}
    - target: {fileID: 1439452020259786180, guid: 09d41bfa2badeaf4ca227274e422c5de, type: 3}
      propertyPath: m_LocalRotation.x
      value: 0
      objectReference: {fileID: 0}
    - target: {fileID: 1439452020259786180, guid: 09d41bfa2badeaf4ca227274e422c5de, type: 3}
      propertyPath: m_LocalRotation.y
      value: 0
      objectReference: {fileID: 0}
    - target: {fileID: 1439452020259786180, guid: 09d41bfa2badeaf4ca227274e422c5de, type: 3}
      propertyPath: m_LocalRotation.z
      value: 0
      objectReference: {fileID: 0}
    - target: {fileID: 1439452020259786180, guid: 09d41bfa2badeaf4ca227274e422c5de, type: 3}
      propertyPath: m_AnchoredPosition.x
      value: 0
      objectReference: {fileID: 0}
    - target: {fileID: 1439452020259786180, guid: 09d41bfa2badeaf4ca227274e422c5de, type: 3}
      propertyPath: m_AnchoredPosition.y
      value: 0
      objectReference: {fileID: 0}
    - target: {fileID: 1439452020259786180, guid: 09d41bfa2badeaf4ca227274e422c5de, type: 3}
      propertyPath: m_LocalEulerAnglesHint.x
      value: 0
      objectReference: {fileID: 0}
    - target: {fileID: 1439452020259786180, guid: 09d41bfa2badeaf4ca227274e422c5de, type: 3}
      propertyPath: m_LocalEulerAnglesHint.y
      value: 0
      objectReference: {fileID: 0}
    - target: {fileID: 1439452020259786180, guid: 09d41bfa2badeaf4ca227274e422c5de, type: 3}
      propertyPath: m_LocalEulerAnglesHint.z
      value: 0
      objectReference: {fileID: 0}
    - target: {fileID: 1439452020259786181, guid: 09d41bfa2badeaf4ca227274e422c5de, type: 3}
      propertyPath: targetGroup
      value: 1
      objectReference: {fileID: 0}
    - target: {fileID: 1439452020259786183, guid: 09d41bfa2badeaf4ca227274e422c5de, type: 3}
      propertyPath: m_Name
      value: VolumeControl_Master
      objectReference: {fileID: 0}
    - target: {fileID: 1439452020397298507, guid: 09d41bfa2badeaf4ca227274e422c5de, type: 3}
      propertyPath: m_AnchoredPosition.x
      value: 0
      objectReference: {fileID: 0}
    m_RemovedComponents: []
  m_SourcePrefab: {fileID: 100100000, guid: 09d41bfa2badeaf4ca227274e422c5de, type: 3}
