%YAML 1.1
%TAG !u! tag:unity3d.com,2011:
--- !u!1045 &1
EditorBuildSettings:
  m_ObjectHideFlags: 0
  serializedVersion: 2
  m_Scenes:
  - enabled: 1
    path: Assets/Scenes/Menu.unity
    guid: d9339f9e80e50d04eabf86fd1250018e
  - enabled: 1
    path: Assets/Scenes/Level1.unity
    guid: 6db665efe1d0cbc4bb600d050d7c4f72
  - enabled: 1
    path: Assets/Scenes/GameOver.unity
    guid: 558c11ac8d6097d42b721f7473794ce7
  - enabled: 1
    path: Assets/Scenes/Options.unity
    guid: 0e78672de87164244badaba830905827
  m_configObjects: {}
